/var/spool/torque/mom_priv/jobs/405239.localhost.SC: line 37: ./: Is a directory

libgomp: Invalid value for environment variable OMP_PROC_BIND

libgomp: Invalid value for environment variable OMP_PLACES

libgomp: Invalid value for environment variable OMP_PROC_BIND

libgomp: Invalid value for environment variable OMP_PLACES

libgomp: Invalid value for environment variable OMP_PROC_BIND

libgomp: Invalid value for environment variable OMP_PLACES

libgomp: Invalid value for environment variable OMP_PROC_BIND

libgomp: Invalid value for environment variable OMP_PLACES

libgomp: Invalid value for environment variable OMP_PROC_BIND

libgomp: Invalid value for environment variable OMP_PLACES

libgomp: Invalid value for environment variable OMP_PROC_BIND

libgomp: Invalid value for environment variable OMP_PLACES

libgomp: Invalid value for environment variable OMP_PROC_BIND

libgomp: Invalid value for environment variable OMP_PLACES

libgomp: Invalid value for environment variable OMP_PROC_BIND

libgomp: Invalid value for environment variable OMP_PROC_BIND

libgomp: Invalid value for environment variable OMP_PROC_BIND

libgomp: Invalid value for environment variable OMP_PROC_BIND

libgomp: Invalid value for environment variable OMP_PROC_BIND

libgomp: Invalid value for environment variable OMP_PROC_BIND

libgomp: Invalid value for environment variable OMP_PROC_BIND
/var/spool/torque/mom_priv/jobs/405239.localhost.SC: line 37: ./: Is a directory

libgomp: Invalid value for environment variable OMP_PROC_BIND

libgomp: Invalid value for environment variable OMP_PLACES

libgomp: Invalid value for environment variable OMP_PROC_BIND

libgomp: Invalid value for environment variable OMP_PLACES

libgomp: Invalid value for environment variable OMP_PROC_BIND

libgomp: Invalid value for environment variable OMP_PLACES

libgomp: Invalid value for environment variable OMP_PROC_BIND

libgomp: Invalid value for environment variable OMP_PLACES

libgomp: Invalid value for environment variable OMP_PROC_BIND

libgomp: Invalid value for environment variable OMP_PLACES

libgomp: Invalid value for environment variable OMP_PROC_BIND

libgomp: Invalid value for environment variable OMP_PLACES

libgomp: Invalid value for environment variable OMP_PROC_BIND

libgomp: Invalid value for environment variable OMP_PLACES

libgomp: Invalid value for environment variable OMP_PROC_BIND

libgomp: Invalid value for environment variable OMP_PROC_BIND

libgomp: Invalid value for environment variable OMP_PROC_BIND

libgomp: Invalid value for environment variable OMP_PROC_BIND

libgomp: Invalid value for environment variable OMP_PROC_BIND

libgomp: Invalid value for environment variable OMP_PROC_BIND

libgomp: Invalid value for environment variable OMP_PROC_BIND
/var/spool/torque/mom_priv/jobs/405239.localhost.SC: line 37: ./: Is a directory

libgomp: Invalid value for environment variable OMP_PROC_BIND

libgomp: Invalid value for environment variable OMP_PLACES

libgomp: Invalid value for environment variable OMP_PROC_BIND

libgomp: Invalid value for environment variable OMP_PLACES

libgomp: Invalid value for environment variable OMP_PROC_BIND

libgomp: Invalid value for environment variable OMP_PLACES

libgomp: Invalid value for environment variable OMP_PROC_BIND

libgomp: Invalid value for environment variable OMP_PLACES

libgomp: Invalid value for environment variable OMP_PROC_BIND

libgomp: Invalid value for environment variable OMP_PLACES

libgomp: Invalid value for environment variable OMP_PROC_BIND

libgomp: Invalid value for environment variable OMP_PLACES

libgomp: Invalid value for environment variable OMP_PROC_BIND

libgomp: Invalid value for environment variable OMP_PLACES

libgomp: Invalid value for environment variable OMP_PROC_BIND

libgomp: Invalid value for environment variable OMP_PROC_BIND

libgomp: Invalid value for environment variable OMP_PROC_BIND

libgomp: Invalid value for environment variable OMP_PROC_BIND

libgomp: Invalid value for environment variable OMP_PROC_BIND

libgomp: Invalid value for environment variable OMP_PROC_BIND

libgomp: Invalid value for environment variable OMP_PROC_BIND
